<?xml version='1.0' encoding='UTF-8' standalone='no'?>
<svg version="1.2" width="297mm" xmlns:inkscape="http://www.inkscape.org/namespaces/inkscape" xmlns:dc="http://purl.org/dc/elements/1.1/" xmlns:cc="http://creativecommons.org/ns#" viewBox="0 0 2970 2100" xmlns="http://www.w3.org/2000/svg" xmlns:svg="http://www.w3.org/2000/svg" xmlns:rdf="http://www.w3.org/1999/02/22-rdf-syntax-ns#" xmlns:sodipodi="http://sodipodi.sourceforge.net/DTD/sodipodi-0.dtd" xmlns:freecad="http://www.freecad.org/wiki/index.php?title=Svg_Namespace" baseProfile="tiny" xmlns:xlink="http://www.w3.org/1999/xlink" height="210mm">
 <title>FreeCAD SVG Export</title>
 <desc>Drawing page: Page exported from FreeCAD document: Unnamed1</desc>
 <defs/>
 <g inkscape:groupmode="layer" inkscape:label="TechDraw" id="Page">
  <g style="stroke: none;" transform="scale(10.000000, 10.000000)" id="A4_LandscapeTD.svg">
   <!-- Working space 10 10 287 200 -->
   <!-- Title block 147 153 287 200 -->
   <metadata id="metadata849">
    <rdf:RDF>
     <cc:Work rdf:about="">
      <dc:format>image/svg+xml</dc:format>
      <dc:type rdf:resource="http://purl.org/dc/dcmitype/StillImage"/>
      <dc:title/>
     </cc:Work>
    </rdf:RDF>
   </metadata>
   <path stroke="#000" stroke-width=".35" d="m9.9956 200h276.71" id="path6" fill="none"/>
   <path stroke="#000" stroke-width=".35" d="m287.14 199.85v-190.16" id="path8" fill="none"/>
   <path stroke="#000" stroke-width=".35" d="m287.2 9.8544h-277.06" id="path10" fill="none"/>
   <path stroke="#000" stroke-width=".35" d="m10.145 9.7049v190.15" id="path12" fill="none"/>
   <path stroke="#000" stroke-width=".35" d="m148.65 9.8574v-9.7149" id="path14" fill="none"/>
   <path stroke="#000" stroke-width=".35" d="m148.68 202.65v7.1938" id="path16" fill="none"/>
   <path stroke="#000" stroke-width=".35" d="m10.169 104.83h-9.9941" id="path18" fill="none"/>
   <path stroke="#000" stroke-width=".35" d="m287.17 104.82h9.6618" id="path20" fill="none"/>
   <path stroke="#000" stroke-width=".35" d="m241.01 202.44v5.1115" id="path22" fill="none"/>
   <path stroke="#000" stroke-width=".35" d="m56.342 200v7.5" id="path24" fill="none"/>
   <path stroke="#000" stroke-width=".35" d="m194.84 202.44v5.1115" id="path26" fill="none"/>
   <path stroke="#000" stroke-width=".35" d="m102.51 200v7.5" id="path28" fill="none"/>
   <path stroke="#000" stroke-width=".35" d="m102.48 9.8525v-7.5412" id="path32" fill="none"/>
   <path stroke="#000" stroke-width=".35" d="m194.81 9.8525v-7.5412" id="path34" fill="none"/>
   <path stroke="#000" stroke-width=".35" d="m56.315 9.8525v-7.5412" id="path36" fill="none"/>
   <path stroke="#000" stroke-width=".35" d="m240.98 9.8525v-7.5412" id="path38" fill="none"/>
   <path stroke="#000" stroke-width=".35" d="m10 57.325h-7.5" id="path42" fill="none"/>
   <path stroke="#000" stroke-width=".35" d="m10 152.32h-7.5" id="path44" fill="none"/>
   <path stroke="#000" stroke-width=".35" d="m287.18 57.325h7.5" id="path46" fill="none"/>
   <path stroke="#000" stroke-width=".35" d="m287.18 152.32h7.5" id="path48" fill="none"/>
   <path stroke="#000" stroke-width=".35" d="m137.15 202.5h150.05" id="path50" fill="none"/>
   <path stroke="#000" stroke-width=".35" d="m187.18 200v5" id="path52" fill="none"/>
   <path stroke="#000" stroke-width=".35" d="m237.18 200v5" id="path54" fill="none"/>
   <path stroke="#000" stroke-width=".35" d="m257.18 200v2.5" id="path58" fill="none"/>
   <path stroke="#000" stroke-width=".35" d="m247.18 200v2.5" id="path62" fill="none"/>
   <path stroke="#000" stroke-width=".35" d="m227.18 200v2.5" id="path66" fill="none"/>
   <path stroke="#000" stroke-width=".35" d="m207.18 200v2.5" id="path68" fill="none"/>
   <path stroke="#000" stroke-width=".35" d="m217.18 200v2.5" id="path70" fill="none"/>
   <path stroke="#000" stroke-width=".35" d="m137.18 200v5" id="path72" fill="none"/>
   <path stroke="#000" stroke-width=".35" d="m287.12 200v5" id="path74" fill="none"/>
   <path stroke="#000" stroke-width=".35" d="m177.18 200v2.5" id="path78" fill="none"/>
   <path stroke="#000" stroke-width=".35" d="m167.18 200v2.5" id="path80" fill="none"/>
   <path stroke="#000" stroke-width=".35" d="m197.18 200v2.5" id="path82" fill="none"/>
   <path stroke="#000" stroke-width=".35" d="m147.18 200v2.5" id="path84" fill="none"/>
   <path stroke="#000" stroke-width=".35" d="m277.18 200v2.5" id="path86" fill="none"/>
   <path stroke="#000" stroke-width=".35" d="m157.18 200v2.5" id="path88" fill="none"/>
   <path stroke="#000" stroke-width=".35" d="m267.18 200v2.5" id="path90" fill="none"/>
   <g stroke="#000" transform="translate(-110.92 .82999)" stroke-width=".13" id="g470" fill="none">
    <path fill-rule="evenodd" stroke="none" d="m234.58 5.005v1.165h3.5v-1.165l-0.111-0.54972-0.338-0.40851-0.549-0.25216-0.752-0.09076-0.766 0.08069-0.303 0.10086-0.242 0.1412-0.328 0.40851-0.081 0.2673-0.03 0.30259zm0.419 0.0353 0.075-0.3833 0.232-0.26223 0.414-0.15635 0.61-0.05044 0.59 0.05548 0.414 0.15634 0.247 0.2673 0.081 0.3732v0.66065h-2.663v-0.66065z" id="path472" fill="#000"/>
   </g>
   <g stroke="#000" transform="translate(-104.58 .94092)" stroke-width=".13" id="g474" fill="none">
    <path fill-rule="evenodd" stroke="none" d="m185.58 6.0591v-2.219h-0.423v1.755h-1.186v-1.5634h-0.418v1.5634h-1.049v-1.7147h-0.424v2.1787h3.5z" id="path476" fill="#000"/>
   </g>
   <g stroke="#000" transform="translate(-117.15 .7493)" stroke-width=".13" id="g478" fill="none">
    <path fill-rule="evenodd" stroke="none" d="m289.28 4.183 0.424 0.10086 0.302 0.16645 0.187 0.23196 0.06 0.27234-0.09 0.32782-0.273 0.2572-0.444 0.17148-0.615 0.05548-0.61-0.05548-0.449-0.16644-0.272-0.2572-0.096-0.33286 0.05-0.24207 0.142-0.20678 0.227-0.16138 0.312-0.11093v-0.47913l-0.479 0.15131-0.363 0.26224-0.227 0.35809-0.081 0.42865 0.126 0.53461 0.353 0.40847 0.58 0.26227 0.787 0.09076 0.787-0.09076 0.58-0.26227 0.358-0.40847 0.121-0.53461-0.096-0.46902-0.267-0.37824-0.439-0.26727-0.595-0.14124v0.48416z" id="path480" fill="#000"/>
   </g>
   <g stroke="#000" transform="translate(-98.25 .96616)" stroke-width=".13" id="g482" fill="none">
    <path fill-rule="evenodd" stroke="none" d="m133.08 6.0338v-0.46902h-1.609v-1.4726h-0.418v1.4726h-1.049v-1.8105h-0.424v2.2795h3.5z" id="path484" fill="#000"/>
   </g>
   <g stroke="#000" transform="translate(-123.58 .83502)" stroke-width=".13" id="g486" fill="none">
    <path fill-rule="evenodd" stroke="none" d="m341.19 4.3696-0.292-0.35303-0.197-0.09079-0.242-0.03027-0.379 0.06558-0.272 0.19669-0.166 0.31771-0.061 0.44382v1.2457h3.5v-1.3163l-0.07-0.46902-0.207-0.34799-0.328-0.21686-0.444-0.07565-0.297 0.04541-0.247 0.12103-0.182 0.19668-0.116 0.26731zm-0.156 0.64551v0.68588h-1.034v-0.72623l0.03-0.27231 0.091-0.19165 0.156-0.11599 0.232-0.04035 0.232 0.04538 0.162 0.12103 0.1 0.20679 0.031 0.28745zm1.629-0.11094v0.79682h-1.206v-0.75144l0.036-0.31771 0.105-0.22696 0.182-0.13617 0.262-0.04538 0.278 0.04538 0.191 0.1261 0.116 0.21182 0.036 0.29754z" id="path488" fill="#000"/>
   </g>
   <g stroke="#000" transform="translate(-129.91 .46686)" stroke-width=".13" id="g494" fill="none">
    <path fill-rule="evenodd" stroke="none" d="m395.58 6.5331v-0.46399l-1.029-0.36816v-1.397l1.029-0.36817v-0.47406l-3.505 1.281v0.5144l3.505 1.2759zm-1.457-0.99353-1.544-0.53961 1.544-0.53964v1.0792z" id="path496" fill="#000"/>
   </g>
   <g stroke="#000" transform="translate(0,-30.221)" stroke-width=".13" id="g502" fill="none">
    <path fill-rule="evenodd" stroke="none" d="m5.7338 112.67h0.0353l0.48415-0.081 0.36311-0.237 0.23199-0.373 0.08574-0.494-0.08574-0.525-0.2219-0.393-0.35302-0.252-0.4539-0.091-0.29755 0.04-0.24207 0.111-0.1866 0.182-0.13617 0.242-0.27233-0.328-0.43372-0.116-0.39337 0.076-0.29755 0.217-0.1866 0.353-0.06556 0.484 0.08069 0.454 0.2219 0.348 0.35303 0.227 0.46902 0.075h0.0353v-0.449l-0.32277-0.04-0.23199-0.131-0.14121-0.212-0.05043-0.297 0.04035-0.263 0.10591-0.191 0.17147-0.116 0.23198-0.046 0.24712 0.046 0.16643 0.121 0.10086 0.211 0.03026 0.288-0.00504 0.197h0.39841l-0.01008-0.247 0.04539-0.318 0.12103-0.237 0.19669-0.141 0.2572-0.051 0.29251 0.056 0.21686 0.146 0.13617 0.232 0.04539 0.307-0.05044 0.318-0.15129 0.232-0.24208 0.146-0.33285 0.056v0.464z" id="path504" fill="#000"/>
   </g>
   <g stroke="#000" transform="translate(0,-56.881)" stroke-width=".13" id="g506" fill="none">
    <path fill-rule="evenodd" stroke="none" d="m6.8332 186.83v-2.406h-0.43371v1.901l-0.23704-0.106-0.19668-0.181-0.35807-0.56-0.1513-0.298-0.21686-0.332-0.25216-0.237-0.29755-0.137-0.3379-0.05-0.42363 0.086-0.33285 0.237-0.21182 0.363-0.07565 0.469 0.08574 0.484 0.23703 0.368 0.37824 0.237 0.49928 0.081h0.07061v-0.459h-0.04035l-0.34294-0.045-0.25216-0.137-0.16138-0.216-0.05548-0.288 0.05043-0.292 0.12608-0.217 0.19669-0.142 0.24712-0.05 0.23199 0.035 0.19668 0.096 0.17147 0.162 0.1513 0.221 0.16138 0.298 0.31268 0.494 0.33286 0.348 0.40346 0.207 0.50936 0.066h0.01513z" id="path508" fill="#000"/>
   </g>
   <g stroke="#000" transform="translate(-123.73 -30.884)" stroke-width=".13" id="g510" fill="none">
    <path fill-rule="evenodd" stroke="none" d="m413.73 112.13v0.035l0.081 0.484 0.237 0.363 0.373 0.232 0.494 0.086 0.525-0.086 0.393-0.222 0.252-0.353 0.091-0.454-0.04-0.297-0.111-0.242-0.182-0.187-0.242-0.136 0.328-0.272 0.116-0.434-0.076-0.393-0.217-0.298-0.353-0.186-0.484-0.066-0.454 0.081-0.348 0.222-0.227 0.353-0.075 0.469v0.035h0.449l0.04-0.323 0.131-0.232 0.212-0.141 0.297-0.05 0.263 0.04 0.191 0.106 0.116 0.171 0.046 0.232-0.046 0.247-0.121 0.167-0.211 0.101-0.288 0.03-0.197-5e-3v0.398l0.247-0.01 0.318 0.046 0.237 0.121 0.141 0.196 0.051 0.257-0.056 0.293-0.146 0.217-0.232 0.136-0.307 0.045-0.318-0.05-0.232-0.151-0.146-0.242-0.056-0.333h-0.464z" id="path512" fill="#000"/>
   </g>
   <g stroke="#000" transform="translate(-123.77 -57.483)" stroke-width=".13" id="g514" fill="none">
    <path fill-rule="evenodd" stroke="none" d="m413.77 187.43h2.406v-0.434h-1.901l0.106-0.237 0.181-0.196 0.56-0.358 0.298-0.152 0.332-0.216 0.237-0.253 0.137-0.297 0.05-0.338-0.086-0.424-0.237-0.333-0.363-0.211-0.469-0.076-0.484 0.086-0.368 0.237-0.237 0.378-0.081 0.499v0.071h0.459v-0.04l0.045-0.343 0.137-0.253 0.217-0.161 0.287-0.055 0.292 0.05 0.217 0.126 0.142 0.197 0.05 0.247-0.035 0.232-0.096 0.197-0.162 0.171-0.221 0.151-0.298 0.162-0.494 0.312-0.348 0.333-0.207 0.404-0.066 0.509v0.015z" id="path516" fill="#000"/>
   </g>
   <g stroke="#000" transform="translate(0,-3.5108)" stroke-width=".13" id="g518" fill="none">
    <path fill-rule="evenodd" stroke="none" d="m6.8332 36.923v-0.4539h-0.86743v-0.4992h-0.40346v0.4992h-2.1535v0.459l2.1131 1.5331h0.44381v-1.5382h0.86743zm-1.2709 1.1146-1.5684-1.1146h1.5684v1.1146z" id="path520" fill="#000"/>
   </g>
   <g stroke="#000" transform="translate(0,-83.82)" stroke-width=".13" id="g522" fill="none">
    <path fill-rule="evenodd" stroke="none" d="m6.8332 259.89v-0.459h-3.5252v0.343l0.30764 0.091 0.20677 0.181 0.12104 0.278 0.04034 0.383h0.35807v-0.817h2.4914z" id="path524" fill="#000"/>
   </g>
   <g stroke="#000" transform="translate(-123.74 -4.0832)" stroke-width=".13" id="g526" fill="none">
    <path fill-rule="evenodd" stroke="none" d="m415.28 39.033h0.454v-0.8674h0.5v-0.4035h-0.5v-2.1534h-0.459l-1.533 2.1131v0.4438h1.538v0.8674zm-1.114-1.2709 1.114-1.5684v1.5684h-1.114z" id="path528" fill="#000"/>
   </g>
   <g stroke="#000" transform="translate(-124.09 -84.183)" stroke-width=".13" id="g530" fill="none">
    <path fill-rule="evenodd" stroke="none" d="m414.91 261.63h0.459v-3.525h-0.343l-0.091 0.308-0.181 0.206-0.277 0.121-0.384 0.041v0.358h0.817v2.491z" id="path532" fill="#000"/>
   </g>
   <!-- DrawingContent -->
   <g stroke="#000" transform="matrix(0 1 -1 0 37.367 72.917)" stroke-width=".13" id="g482-7" fill="none">
    <path fill-rule="evenodd" stroke="none" d="m133.08 6.0338v-0.46902h-1.609v-1.4726h-0.418v1.4726h-1.049v-1.8105h-0.424v2.2795h3.5z" id="path484-3" fill="#000"/>
   </g>
   <g stroke="#000" transform="matrix(0 1 -1 0 83.559 20.417)" stroke-width=".13" id="g474-4" fill="none">
    <path fill-rule="evenodd" stroke="none" d="m185.58 6.0591v-2.219h-0.423v1.755h-1.186v-1.5634h-0.418v1.5634h-1.049v-1.7147h-0.424v2.1787h3.5z" id="path476-2" fill="#000"/>
   </g>
   <g stroke="#000" transform="matrix(0 1 -1 0 129.84 -32.083)" stroke-width=".13" id="g470-7" fill="none">
    <path fill-rule="evenodd" stroke="none" d="m234.58 5.005v1.165h3.5v-1.165l-0.111-0.54972-0.338-0.40851-0.549-0.25216-0.752-0.09076-0.766 0.08069-0.303 0.10086-0.242 0.1412-0.328 0.40851-0.081 0.2673-0.03 0.30259zm0.419 0.0353 0.075-0.3833 0.232-0.26223 0.414-0.15635 0.61-0.05044 0.59 0.05548 0.414 0.15634 0.247 0.2673 0.081 0.3732v0.66065h-2.663v-0.66065z" id="path472-0" fill="#000"/>
   </g>
   <g transform="translate(-153.06 .054004)" id="g4419">
    <path stroke="#000" stroke-width=".35" d="m300.15 199.95h140.09" id="path92" fill="none"/>
    <path stroke="#000" stroke-width=".35" d="m300.2 199.99v-46.69" id="path94" fill="none"/>
    <path stroke="#000" stroke-width=".35" d="m300.15 153.3h140.09" id="path96" fill="none"/>
    <path stroke="#000" stroke-width=".35" d="m440.2 153.26v46.727" id="path98" fill="none"/>
    <path stroke="#000" stroke-width=".35" d="m300.15 195.95h119.07" id="path100" fill="none"/>
    <path stroke="#000" stroke-width=".35" d="m300.15 182.95h119.07" id="path102" fill="none"/>
    <path stroke="#000" stroke-width=".35" d="m300.15 169.95h119.07" id="path104" fill="none"/>
    <path stroke="#000" stroke-width=".35" d="m419.17 193.29h21.055" id="path108" fill="none"/>
    <path stroke="#000" stroke-width=".35" d="m419.17 186.62h21.055" id="path110" fill="none"/>
    <path stroke="#000" stroke-width=".35" d="m419.17 179.95h21.055" id="path112" fill="none"/>
    <path stroke="#000" stroke-width=".35" d="m419.17 173.29h21.055" id="path114" fill="none"/>
    <path stroke="#000" stroke-width=".35" d="m419.17 166.62h21.055" id="path116" fill="none"/>
    <path stroke="#000" stroke-width=".35" d="m419.17 159.95h21.055" id="path118" fill="none"/>
    <path stroke="#000" stroke-width=".35" d="m317.7 195.95v-26" id="path124" fill="none"/>
    <path stroke="#000" stroke-width=".35" d="m338.2 195.99v-42.795" id="path126" fill="none"/>
    <path stroke="#000" stroke-width=".35" d="m400.2 195.95v-13" id="path128" fill="none"/>
    <path stroke="#000" stroke-width=".35" d="m419.2 199.99v-46.727" id="path130" fill="none"/>
    <path stroke="#000" stroke-width=".35" d="m424.12 199.99v-46.727" id="path132" fill="none"/>
    <g stroke="#000" transform="matrix(1 0 0 1 80.199 -87.047)" stroke-width=".13" id="g538" fill="none">
     <path fill-rule="evenodd" stroke="none" d="m221.31 271.59h-0.197l0.044 0.23 0.108 0.168 0.166 0.102 0.225 0.036 0.223-0.034 0.166-0.095 0.106-0.149 0.039-0.197-0.033-0.177-0.09-0.115-0.147-0.075-0.197-0.057-0.169-0.041-0.11-0.047-0.063-0.069-0.019-0.109 0.019-0.097 0.057-0.073 0.086-0.05 0.119-0.017 0.121 0.021 0.095 0.059 0.063 0.097 0.03 0.132h0.197v-4e-3l-0.035-0.204-0.101-0.151-0.16-0.095-0.217-0.032-0.194 0.032-0.151 0.091-0.098 0.14-0.034 0.182 0.028 0.162 0.082 0.11 0.13 0.074 0.177 0.056 0.175 0.049 0.132 0.048 0.08 0.069 0.028 0.113-0.026 0.114-0.067 0.087-0.102 0.054-0.131 0.017-0.147-0.024-0.113-0.069-0.071-0.112-0.024-0.15zm1.993-0.062-0.043 0.181-0.072 0.13-0.099 0.08-0.117 0.026-0.14-0.039-0.111-0.117-0.073-0.19-0.024-0.264 0.024-0.261 0.071-0.192 0.111-0.117 0.142-0.041 0.104 0.021 0.089 0.061 0.069 0.097 0.047 0.134h0.206l-0.065-0.205-0.113-0.156-0.153-0.097-0.184-0.035-0.229 0.054-0.175 0.152-0.112 0.248-0.039 0.337 0.039 0.338 0.112 0.248 0.175 0.154 0.229 0.051 0.201-0.041 0.162-0.114 0.115-0.188 0.06-0.255h-0.207zm0.294 0.557h0.199l0.157-0.441h0.599l0.158 0.441h0.203l-0.549-1.502h-0.22l-0.547 1.502zm0.426-0.624 0.231-0.662 0.231 0.662h-0.462zm1.093 0.624h0.964v-0.181h-0.765v-1.319h-0.199v1.5zm1.286 0h0.951v-0.181h-0.752v-0.508h0.67v-0.179h-0.67v-0.45h0.735v-0.182h-0.934v1.5z" id="path540" fill="#000"/>
    </g>
    <g stroke="#000" transform="matrix(1 0 0 1 78.041 -87.047)" stroke-width=".13" id="g546" fill="none">
     <path fill-rule="evenodd" stroke="none" d="m241.24 272.08h0.19l0.216-1.301 0.223 1.301h0.182l0.263-1.502h-0.173l-0.186 1.278-0.213-1.278h-0.189l-0.209 1.278-0.186-1.278h-0.177l0.259 1.502zm1.256 0h0.951v-0.181h-0.752v-0.508h0.67v-0.179h-0.67v-0.45h0.735v-0.182h-0.934v1.5zm1.655-0.181h-0.276v0.181h0.752v-0.181h-0.277v-1.137h0.277v-0.182h-0.752v0.182h0.276v1.137zm1.797-0.02 0.036 0.201h0.108v-0.81h-0.546v0.184h0.337v0.013l-0.026 0.198-0.069 0.147-0.106 0.093-0.132 0.031-0.147-0.039-0.115-0.117-0.073-0.192-0.026-0.264 0.024-0.262 0.073-0.192 0.117-0.117 0.158-0.041 0.108 0.022 0.088 0.06 0.065 0.102 0.037 0.136h0.214l-0.056-0.207-0.106-0.156-0.149-0.095-0.188-0.035-0.247 0.054-0.186 0.158-0.118 0.249-0.042 0.33 0.042 0.333 0.118 0.249 0.175 0.158 0.221 0.051 0.123-0.017 0.11-0.043 0.095-0.076 0.083-0.106zm0.404 0.201h0.201v-0.704h0.601v0.704h0.199v-1.5h-0.199v0.612h-0.601v-0.612h-0.201v1.5zm1.703 0h0.199v-1.318h0.454v-0.182h-1.109v0.182h0.456v1.318zm2.86 0.418h0.136l-0.124-0.23-0.086-0.239-0.054-0.253-0.017-0.255 0.017-0.255 0.054-0.251 0.086-0.242 0.124-0.229h-0.136l-0.158 0.237-0.111 0.236-0.064 0.246-0.02 0.258 0.02 0.259 0.064 0.244 0.111 0.236 0.158 0.238zm0.721-0.418h0.191v-0.408l0.198-0.192 0.342 0.6h0.214l-0.426-0.732 0.437-0.428h-0.24l-0.525 0.523v-0.914h-0.191v1.551zm2.179-0.051v-1.109h-0.181v0.188l-0.15-0.171-0.09-0.043-0.102-0.015-0.184 0.043-0.142 0.121-0.093 0.194-0.033 0.262 0.033 0.264 0.093 0.194 0.142 0.123 0.184 0.041 0.104-0.015 0.086-0.039 0.152-0.164v0.164l-0.018 0.13-0.047 0.093-0.091 0.054-0.136 0.02-0.119-0.013-0.084-0.033-0.05-0.056-0.015-0.076h-0.184v9e-3l0.028 0.138 0.087 0.104 0.138 0.067 0.188 0.024 0.225-0.033 0.149-0.09 0.084-0.158 0.026-0.218zm-0.778-0.53 0.019-0.192 0.059-0.143 0.091-0.084 0.121-0.031 0.127 0.031 0.095 0.084 0.059 0.143 0.021 0.192-0.021 0.197-0.059 0.14-0.095 0.087-0.127 0.028-0.121-0.028-0.091-0.087-0.059-0.142-0.019-0.195zm1.468 0.999 0.155-0.238 0.11-0.236 0.065-0.244 0.022-0.259-0.022-0.258-0.065-0.246-0.11-0.236-0.155-0.237h-0.137l0.121 0.229 0.087 0.242 0.052 0.251 0.019 0.255-0.019 0.255-0.052 0.253-0.089 0.239-0.119 0.23h0.137z" id="path548" fill="#000"/>
    </g>
    <g stroke="#000" transform="matrix(1 0 0 1 73.175 -87.047)" stroke-width=".13" id="g550" fill="none">
     <path fill-rule="evenodd" stroke="none" d="m266.65 270.58h-0.499v1.5h0.499l0.236-0.047 0.175-0.145 0.108-0.236 0.039-0.322-0.035-0.328-0.043-0.13-0.06-0.104-0.175-0.14-0.115-0.035-0.13-0.013zm-0.015 0.18 0.165 0.032 0.112 0.1 0.067 0.177 0.022 0.261-0.024 0.253-0.067 0.178-0.115 0.105-0.16 0.035h-0.283v-1.141h0.283zm0.837 1.32h0.201v-0.633h0.205l0.151 7e-3 0.095 0.03 0.052 0.071 0.022 0.128 0.011 0.194 0.013 0.128 0.026 0.075h0.227v-0.041l-0.05-0.06-0.017-0.113-0.016-0.242-0.036-0.179-0.05-0.056-0.078-0.041 0.087-0.054 0.06-0.076 0.039-0.095 0.013-0.115-0.03-0.181-0.087-0.136-0.142-0.082-0.195-0.029h-0.501v1.5zm0.445-1.316 0.132 0.013 0.093 0.041 0.058 0.076 0.02 0.119-0.022 0.125-0.058 0.076-0.1 0.039-0.136 0.01h-0.231v-0.499h0.244zm0.681 1.316h0.199l0.157-0.441h0.599l0.158 0.441h0.203l-0.549-1.502h-0.22l-0.547 1.502zm0.426-0.624 0.231-0.662 0.231 0.662h-0.462zm1.124 0.624h0.19l0.216-1.301 0.222 1.301h0.182l0.264-1.502h-0.173l-0.186 1.278-0.214-1.278h-0.188l-0.21 1.278-0.186-1.278h-0.177l0.26 1.502zm1.61-0.181h-0.277v0.181h0.752v-0.181h-0.276v-1.137h0.276v-0.182h-0.752v0.182h0.277v1.137zm0.908 0.181h0.179v-1.229l0.575 1.229h0.231v-1.5h-0.181v1.23l-0.569-1.23h-0.235v1.5zm2.189-0.201 0.037 0.201h0.108v-0.81h-0.547v0.184h0.337v0.013l-0.026 0.198-0.069 0.147-0.106 0.093-0.132 0.031-0.147-0.039-0.114-0.117-0.074-0.192-0.026-0.264 0.024-0.262 0.074-0.192 0.116-0.117 0.158-0.041 0.108 0.022 0.089 0.06 0.065 0.102 0.036 0.136h0.214l-0.056-0.207-0.106-0.156-0.149-0.095-0.188-0.035-0.246 0.054-0.186 0.158-0.119 0.249-0.041 0.33 0.041 0.333 0.119 0.249 0.175 0.158 0.22 0.051 0.124-0.017 0.11-0.043 0.095-0.076 0.082-0.106zm1.714 0.201h0.179v-1.229l0.575 1.229h0.232v-1.5h-0.182v1.23l-0.568-1.23h-0.236v1.5zm1.277-0.57 0.031 0.27 0.095 0.192 0.16 0.111 0.231 0.038 0.229-0.038 0.16-0.111 0.095-0.19 0.032-0.272v-0.93h-0.201v0.941l-0.019 0.183-0.058 0.132-0.1 0.078-0.138 0.026-0.143-0.026-0.099-0.078-0.059-0.129-0.017-0.186v-0.941h-0.199v0.93zm1.278 0.57h0.166v-1.361l0.281 1.361h0.186l0.279-1.361v1.361h0.168v-1.5h-0.263l-0.277 1.323-0.274-1.323h-0.266v1.5zm2.111-0.81 0.152-0.125 0.039-0.085 0.013-0.103-0.029-0.163-0.084-0.116-0.136-0.072-0.19-0.026h-0.534v1.5h0.564l0.201-0.03 0.149-0.088 0.093-0.141 0.033-0.19-0.02-0.128-0.052-0.106-0.084-0.077-0.115-0.05zm-0.276-0.067h-0.294v-0.443h0.311l0.117 0.013 0.082 0.039 0.05 0.067 0.017 0.099-0.02 0.1-0.051 0.069-0.089 0.043-0.123 0.013zm0.047 0.698h-0.341v-0.517h0.322l0.136 0.016 0.097 0.045 0.059 0.078 0.019 0.112-0.019 0.119-0.054 0.082-0.091 0.05-0.128 0.015zm0.806 0.179h0.951v-0.181h-0.752v-0.508h0.67v-0.179h-0.67v-0.45h0.735v-0.182h-0.934v1.5zm1.273 0h0.202v-0.633h0.205l0.151 7e-3 0.095 0.03 0.052 0.071 0.022 0.128 0.011 0.194 0.012 0.128 0.026 0.075h0.227v-0.041l-0.049-0.06-0.018-0.113-0.015-0.242-0.037-0.179-0.049-0.056-0.078-0.041 0.086-0.054 0.061-0.076 0.039-0.095 0.013-0.115-0.03-0.181-0.087-0.136-0.143-0.082-0.194-0.029h-0.502v1.5zm0.446-1.316 0.132 0.013 0.093 0.041 0.058 0.076 0.019 0.119-0.021 0.125-0.059 0.076-0.099 0.039-0.136 0.01h-0.231v-0.499h0.244z" id="path552" fill="#000"/>
    </g>
    <g stroke="#000" transform="matrix(1 0 0 1 35.412 -87.047)" stroke-width=".13" id="g554" fill="none">
     <path fill-rule="evenodd" stroke="none" d="m366.31 271.59h-0.197l0.044 0.23 0.108 0.168 0.166 0.102 0.225 0.036 0.223-0.034 0.166-0.095 0.106-0.149 0.039-0.197-0.033-0.177-0.09-0.115-0.147-0.075-0.197-0.057-0.169-0.041-0.11-0.047-0.063-0.069-0.019-0.108 0.019-0.098 0.057-0.073 0.086-0.05 0.119-0.017 0.121 0.021 0.095 0.059 0.063 0.097 0.03 0.132h0.197v-4e-3l-0.035-0.204-0.101-0.151-0.16-0.095-0.217-0.032-0.194 0.032-0.151 0.091-0.098 0.14-0.034 0.182 0.028 0.162 0.082 0.11 0.13 0.074 0.177 0.056 0.175 0.049 0.132 0.048 0.08 0.069 0.028 0.113-0.026 0.114-0.067 0.087-0.102 0.054-0.131 0.017-0.147-0.024-0.113-0.069-0.071-0.112-0.024-0.15zm1.141 0.495h0.201v-0.704h0.601v0.704h0.199v-1.5h-0.199v0.612h-0.601v-0.612h-0.201v1.5zm1.349 0h0.951v-0.181h-0.752v-0.508h0.67v-0.179h-0.67v-0.45h0.735v-0.182h-0.934v1.5zm1.301 0h0.951v-0.181h-0.752v-0.508h0.67v-0.179h-0.67v-0.45h0.735v-0.182h-0.934v1.5zm1.656 0h0.199v-1.318h0.453v-0.182h-1.108v0.182h0.456v1.318z" id="path556" fill="#000"/>
    </g>
    <g stroke="#000" transform="matrix(1 0 0 1 80.199 -87.047)" stroke-width=".13" id="g558" fill="none">
     <path fill-rule="evenodd" stroke="none" d="m221.31 258.59h-0.197l0.044 0.23 0.108 0.168 0.166 0.102 0.225 0.036 0.223-0.034 0.166-0.095 0.106-0.149 0.039-0.197-0.033-0.177-0.09-0.115-0.147-0.075-0.197-0.057-0.169-0.041-0.11-0.047-0.063-0.069-0.019-0.109 0.019-0.097 0.057-0.073 0.086-0.05 0.119-0.017 0.121 0.021 0.095 0.059 0.063 0.097 0.03 0.132h0.197v-4e-3l-0.035-0.204-0.101-0.151-0.16-0.095-0.217-0.032-0.194 0.032-0.151 0.091-0.098 0.14-0.034 0.182 0.028 0.162 0.082 0.11 0.13 0.074 0.177 0.056 0.175 0.049 0.132 0.048 0.08 0.069 0.028 0.113-0.026 0.114-0.067 0.087-0.102 0.054-0.131 0.017-0.147-0.024-0.113-0.069-0.071-0.112-0.024-0.15zm1.543 0.314h-0.276v0.181h0.752v-0.181h-0.277v-1.137h0.277v-0.182h-0.752v0.182h0.276v1.137zm0.863 0.181h1.076v-0.181h-0.839l0.839-1.148v-0.171h-1.018v0.182h0.793l-0.851 1.146v0.172zm1.385 0h0.951v-0.181h-0.752v-0.508h0.67v-0.179h-0.67v-0.45h0.735v-0.182h-0.934v1.5z" id="path560" fill="#000"/>
    </g>
    <g stroke="#000" transform="matrix(1 0 0 1 80.199 -87.047)" stroke-width=".13" id="g570" fill="none">
     <path fill-rule="evenodd" stroke="none" d="m221.65 250.08h-0.499v1.5h0.499l0.236-0.047 0.175-0.145 0.108-0.236 0.039-0.322-0.035-0.328-0.043-0.13-0.06-0.104-0.175-0.14-0.115-0.035-0.13-0.013zm-0.015 0.18 0.165 0.032 0.112 0.1 0.067 0.177 0.022 0.261-0.024 0.253-0.067 0.178-0.115 0.105-0.16 0.035h-0.283v-1.141h0.283zm0.662 1.32h0.199l0.157-0.441h0.599l0.158 0.441h0.203l-0.549-1.502h-0.22l-0.547 1.502zm0.425-0.624 0.232-0.662 0.231 0.662h-0.463zm1.433 0.624h0.199v-1.318h0.454v-0.182h-1.109v0.182h0.456v1.318zm0.947 0h0.951v-0.181h-0.752v-0.508h0.67v-0.179h-0.67v-0.45h0.735v-0.182h-0.934v1.5zm1.606 0h0.298v-0.322h-0.298v0.322zm0-0.838h0.298v-0.322h-0.298v0.322z" id="path572" fill="#000"/>
    </g>
    <g stroke="#000" transform="matrix(1 0 0 1 80.199 -72.994)" stroke-width=".13" id="g578" fill="none">
     <path fill-rule="evenodd" stroke="none" d="m221.65 227.58h-0.499v1.5h0.499l0.236-0.047 0.175-0.145 0.108-0.236 0.039-0.322-0.035-0.328-0.043-0.13-0.06-0.104-0.175-0.14-0.115-0.035-0.13-0.013zm-0.015 0.18 0.165 0.032 0.112 0.1 0.067 0.177 0.022 0.261-0.024 0.253-0.067 0.178-0.115 0.105-0.16 0.035h-0.283v-1.141h0.283zm0.865 1.32h0.951v-0.181h-0.752v-0.508h0.67v-0.179h-0.67v-0.45h0.735v-0.182h-0.934v1.5zm1.413-0.495h-0.196l0.043 0.23 0.108 0.168 0.166 0.102 0.225 0.036 0.223-0.034 0.166-0.095 0.106-0.149 0.039-0.197-0.032-0.177-0.091-0.115-0.147-0.075-0.197-0.057-0.168-0.041-0.111-0.047-0.062-0.069-0.02-0.109 0.02-0.097 0.056-0.073 0.086-0.05 0.119-0.017 0.121 0.021 0.095 0.059 0.063 0.097 0.03 0.132h0.197v-5e-3l-0.035-0.203-0.101-0.151-0.16-0.095-0.216-0.032-0.195 0.032-0.151 0.091-0.097 0.14-0.035 0.182 0.028 0.162 0.082 0.11 0.13 0.074 0.177 0.056 0.175 0.049 0.132 0.048 0.08 0.069 0.028 0.113-0.026 0.114-0.067 0.087-0.101 0.054-0.132 0.017-0.147-0.024-0.112-0.069-0.072-0.112-0.024-0.15zm1.544 0.314h-0.277v0.181h0.752v-0.181h-0.277v-1.137h0.277v-0.182h-0.752v0.182h0.277v1.137zm1.796-0.02 0.037 0.201h0.108v-0.81h-0.547v0.184h0.337v0.013l-0.026 0.198-0.069 0.147-0.106 0.093-0.132 0.031-0.147-0.039-0.114-0.117-0.074-0.192-0.026-0.264 0.024-0.262 0.073-0.192 0.117-0.117 0.158-0.041 0.108 0.022 0.089 0.06 0.064 0.102 0.037 0.136h0.214l-0.056-0.207-0.106-0.156-0.149-0.095-0.188-0.035-0.247 0.054-0.185 0.158-0.119 0.249-0.041 0.33 0.041 0.333 0.119 0.249 0.175 0.158 0.22 0.051 0.123-0.017 0.111-0.043 0.095-0.076 0.082-0.106zm0.413 0.201h0.179v-1.229l0.575 1.229h0.231v-1.5h-0.181v1.23l-0.569-1.23h-0.235v1.5zm1.34 0h0.951v-0.181h-0.752v-0.508h0.67v-0.179h-0.67v-0.45h0.734v-0.182h-0.933v1.5zm1.753-1.5h-0.5v1.5h0.5l0.235-0.047 0.175-0.145 0.108-0.236 0.039-0.322-0.034-0.328-0.044-0.13-0.06-0.104-0.175-0.14-0.115-0.035-0.129-0.013zm-0.016 0.18 0.165 0.032 0.112 0.1 0.067 0.177 0.022 0.261-0.024 0.253-0.067 0.178-0.115 0.105-0.16 0.035h-0.283v-1.141h0.283zm2.89 0.51 0.152-0.125 0.038-0.085 0.013-0.104-0.028-0.162-0.084-0.116-0.136-0.072-0.19-0.026h-0.534v1.5h0.564l0.201-0.03 0.149-0.088 0.093-0.141 0.032-0.19-0.019-0.128-0.052-0.106-0.084-0.077-0.115-0.05zm-0.276-0.067h-0.294v-0.443h0.311l0.117 0.013 0.082 0.039 0.049 0.067 0.018 0.099-0.02 0.1-0.052 0.069-0.088 0.043-0.123 0.013zm0.047 0.698h-0.341v-0.517h0.322l0.136 0.016 0.097 0.045 0.058 0.078 0.02 0.112-0.02 0.119-0.054 0.082-0.09 0.05-0.128 0.015zm1.373 0.179v-0.607l0.492-0.895h-0.224l-0.37 0.711-0.374-0.711h-0.24l0.515 0.908v0.594h0.201zm1.039 0h0.299v-0.322h-0.299v0.322zm0-0.838h0.299v-0.322h-0.299v0.322z" id="path580" fill="#000"/>
    </g>
    <g stroke="#000" transform="matrix(1 0 0 1 34.119 -87.047)" stroke-width=".13" id="g594" fill="none">
     <path fill-rule="evenodd" stroke="none" d="m386.4 284.98h0.331l0.263-0.735h0.998l0.263 0.735h0.339l-0.915-2.503h-0.368l-0.911 2.503zm0.71-1.041 0.385-1.102 0.385 1.102h-0.77z" id="path596" fill="#000"/>
    </g>
    <g stroke="#000" transform="matrix(1 0 0 1 31.608 -87.047)" stroke-width=".13" id="g598" fill="none">
     <path fill-rule="evenodd" stroke="none" d="m398.92 285.57v0.252h2.168v-0.252h-2.168z" id="path600" fill="#000"/>
    </g>
    <g stroke="#000" transform="matrix(1 0 0 1 34.119 -87.047)" stroke-width=".13" id="g602" fill="none">
     <path fill-rule="evenodd" stroke="none" d="m387.95 276.96 0.252-0.209 0.065-0.141 0.022-0.173-0.047-0.27-0.14-0.194-0.227-0.119-0.317-0.044h-0.89v2.5h0.94l0.335-0.05 0.249-0.148 0.155-0.234 0.054-0.317-0.033-0.212-0.086-0.177-0.141-0.13-0.191-0.082zm-0.461-0.112h-0.49v-0.739h0.519l0.195 0.022 0.136 0.065 0.083 0.112 0.029 0.165-0.032 0.166-0.087 0.115-0.147 0.072-0.206 0.022zm0.079 1.163h-0.569v-0.86h0.537l0.227 0.025 0.162 0.075 0.097 0.13 0.033 0.187-0.033 0.199-0.09 0.136-0.151 0.083-0.213 0.025z" id="path604" fill="#000"/>
    </g>
    <g stroke="#000" transform="matrix(1 0 0 1 31.608 -87.047)" stroke-width=".13" id="g606" fill="none">
     <path fill-rule="evenodd" stroke="none" d="m398.92 278.91v0.253h2.168v-0.253h-2.168z" id="path608" fill="#000"/>
    </g>
    <g stroke="#000" transform="matrix(1 0 0 1 34.119 -87.047)" stroke-width=".13" id="g610" fill="none">
     <path fill-rule="evenodd" stroke="none" d="m388.08 270.71-0.072 0.303-0.119 0.216-0.166 0.133-0.195 0.044-0.234-0.065-0.183-0.195-0.123-0.317-0.04-0.439 0.04-0.436 0.119-0.321 0.184-0.194 0.237-0.069 0.173 0.036 0.148 0.101 0.115 0.162 0.08 0.224h0.342l-0.108-0.343-0.188-0.259-0.255-0.162-0.307-0.058-0.381 0.09-0.292 0.253-0.188 0.414-0.064 0.562 0.064 0.562 0.188 0.414 0.292 0.256 0.381 0.086 0.335-0.068 0.271-0.191 0.191-0.314 0.1-0.425h-0.345z" id="path612" fill="#000"/>
    </g>
    <g stroke="#000" transform="matrix(1 0 0 1 31.608 -87.047)" stroke-width=".13" id="g614" fill="none">
     <path fill-rule="evenodd" stroke="none" d="m398.92 272.24v0.252h2.168v-0.252h-2.168z" id="path616" fill="#000"/>
    </g>
    <g stroke="#000" transform="matrix(1 0 0 1 34.119 -87.047)" stroke-width=".13" id="g618" fill="none">
     <path fill-rule="evenodd" stroke="none" d="m387.5 262.48h-0.832v2.5h0.832l0.393-0.079 0.292-0.242 0.18-0.392 0.065-0.537-0.058-0.547-0.072-0.217-0.101-0.172-0.292-0.235-0.19-0.057-0.217-0.022zm-0.025 0.299 0.274 0.054 0.187 0.166 0.112 0.295 0.036 0.436-0.04 0.422-0.111 0.295-0.191 0.176-0.267 0.058h-0.472v-1.902h0.472z" id="path620" fill="#000"/>
    </g>
    <g stroke="#000" transform="matrix(1 0 0 1 31.608 -87.047)" stroke-width=".13" id="g622" fill="none">
     <path fill-rule="evenodd" stroke="none" d="m398.92 265.57v0.252h2.168v-0.252h-2.168z" id="path624" fill="#000"/>
    </g>
    <g stroke="#000" transform="matrix(1 0 0 1 34.119 -87.047)" stroke-width=".13" id="g626" fill="none">
     <path fill-rule="evenodd" stroke="none" d="m386.74 258.31h1.585v-0.302h-1.254v-0.847h1.117v-0.299h-1.117v-0.749h1.225v-0.303h-1.556v2.5z" id="path628" fill="#000"/>
    </g>
    <g stroke="#000" transform="matrix(1 0 0 1 31.608 -87.047)" stroke-width=".13" id="g630" fill="none">
     <path fill-rule="evenodd" stroke="none" d="m398.92 258.91v0.253h2.168v-0.253h-2.168z" id="path632" fill="#000"/>
    </g>
    <g stroke="#000" transform="matrix(1 0 0 1 34.119 -87.047)" stroke-width=".13" id="g634" fill="none">
     <path fill-rule="evenodd" stroke="none" d="m386.76 251.64h0.335v-1.149h1.051v-0.299h-1.051v-0.75h1.293v-0.302h-1.628v2.5z" id="path636" fill="#000"/>
    </g>
    <g stroke="#000" transform="matrix(1 0 0 1 31.608 -87.047)" stroke-width=".13" id="g638" fill="none">
     <path fill-rule="evenodd" stroke="none" d="m398.92 252.24v0.252h2.168v-0.252h-2.168z" id="path640" fill="#000"/>
    </g>
    <g stroke="#000" transform="matrix(1 0 0 1 34.119 -87.047)" stroke-width=".13" id="g642" fill="none">
     <path fill-rule="evenodd" stroke="none" d="m388.16 244.64 0.061 0.335h0.181v-1.351h-0.912v0.306h0.562v0.022l-0.043 0.331-0.115 0.245-0.177 0.155-0.22 0.051-0.245-0.065-0.19-0.195-0.123-0.32-0.043-0.44 0.039-0.436 0.123-0.32 0.194-0.195 0.263-0.068 0.181 0.036 0.147 0.101 0.108 0.169 0.062 0.227h0.356l-0.093-0.346-0.177-0.259-0.249-0.159-0.313-0.057-0.411 0.09-0.309 0.263-0.199 0.414-0.068 0.551 0.068 0.555 0.199 0.414 0.291 0.263 0.368 0.087 0.205-0.029 0.184-0.072 0.158-0.126 0.137-0.177z" id="path644" fill="#000"/>
    </g>
    <g stroke="#000" transform="matrix(1 0 0 1 31.608 -87.047)" stroke-width=".13" id="g646" fill="none">
     <path fill-rule="evenodd" stroke="none" d="m398.92 245.57v0.252h2.168v-0.252h-2.168z" id="path648" fill="#000"/>
    </g>
    <text style="line-height:0%" x="301.2355" id="text4183" y="198.72655" fill="#000000" font-family="Arial">
     <tspan style="line-height:1.25" font-size="2.5px" x="301.2355" id="tspan4185" y="198.72655">This drawing is our property; it can't be reproduced or communicated without our written consent.</tspan>
    </text>
    <text style="line-height:0%" x="304.01172" id="text4415" y="179.39999" fill="#000000" font-family="Arial">
     <tspan style="line-height:1.25" font-size="7.9022px" x="304.01172" id="tspan4417" y="179.39999">A4</tspan>
    </text>
    <g transform="matrix(.21138 0 0 .21138 405.73 169.73)" id="layer1">
     <g stroke="#000" transform="matrix(.85064 0 0 .85064 187.83 -.196)" stroke-width="1.91" id="g3813" fill="none">
      <path d="m-216.14 7.2708v55.5h12.375v-21.719h8.75v-8.5625h-8.75v-9.2419h21.555v-15.946l-33.93-0.03125z" id="rect3663"/>
      <path d="m-161.05 23.812-7.1983 4.1299-3.1787-1.1031-3.0327-7.7507-4.7707 0.2507-2.176 8.0147-3.0455 1.4584-7.5959-3.3228-3.2083 3.5652 4.1299 7.1983-1.1286 3.1694-7.7507 3.0327 0.27618 4.78 8.0147 2.176 1.4584 3.0455-3.3483 7.5866 3.5652 3.2083 7.1982-4.1299 3.1949 1.1379 3.0073 7.7414 4.8054-0.26688 2.1505-8.024 3.0455-1.4584 7.6121 3.3576 3.2083-3.5652-4.1299-7.1983 1.1124-3.2042 7.7414-3.0073-0.24138-4.7961-8.024-2.1505-1.4584-3.0455 3.3321-7.6214zm-10.781 11.804 1.4776 0.85736 1.2802 1.1607 1.0249 1.3852 0.73729 1.5401 0.43349 1.6602 0.0718 1.7015-0.24575 1.701-0.56084 1.6148-0.89215 1.4938-1.1259 1.264-1.3852 1.0249-1.5401 0.73729-1.6602 0.43348-1.7108 0.09731-1.701-0.24573-1.6148-0.56085-1.4938-0.89215-1.2548-1.1514-1.0342-1.3597-0.73731-1.5401-0.42417-1.6857-0.0973-1.7108 0.24573-1.701 0.56086-1.6148 0.88284-1.4684 1.1353-1.2895 1.3852-1.0249 1.5401-0.73729 1.6857-0.42417 1.7015-0.07182 1.701 0.24573 1.6148 0.56085z" id="path3659"/>
     </g>
    </g>
   </g>
   <g word-spacing="0px" letter-spacing="0px" id="g3298" fill="#000000" font-family="Arial">
    <text style="line-height:0%" x="147.9312" freecad:editable="Designed_by_Name" id="text3266" y="160.67236">
     <tspan style="line-height:1.25" xml:space="preserve" font-size="3.95px" x="147.9312" id="tspan3268" y="160.67236">Designed by Name</tspan>
    </text>
    <text style="line-height:0%" x="147.93056" freecad:editable="FC-Date" id="text3270" y="168.59135">
     <tspan style="line-height:1.25" xml:space="preserve" font-size="3.95px" x="147.93056" id="tspan3272" y="168.59135">Date</tspan>
    </text>
    <text style="line-height:0%" text-anchor="middle" text-align="center" x="154.46243" freecad:editable="FC-SC" id="text3274" y="191.45177">
     <tspan style="line-height:1.25" xml:space="preserve" font-size="3.95px" x="154.46243" id="tspan3276" y="191.45177">Scale</tspan>
    </text>
    <text style="line-height:0%" text-anchor="middle" text-align="center" x="173.94231" freecad:editable="Weight" id="text3278" y="191.44733">
     <tspan style="line-height:1.25" xml:space="preserve" font-size="3.95px" x="173.94231" id="tspan3280" y="191.44733">Weight</tspan>
    </text>
    <text style="line-height:0%" x="186.05237" freecad:editable="FC-Title" id="text3282" y="158.72597">
     <tspan style="line-height:1.25" xml:space="preserve" font-size="5.6444px" x="186.05237" id="tspan3284" y="158.72597">Title</tspan>
    </text>
    <text style="line-height:0%" x="185.99422" freecad:editable="Subtitle" id="text3286" y="165.73558">
     <tspan style="line-height:1.25" xml:space="preserve" font-size="3.9511px" x="185.99422" id="tspan3288" y="165.73558">Subtitle</tspan>
    </text>
    <text style="line-height:0%" x="185.6927" freecad:editable="Drawing_number" id="text3290" y="191.31752">
     <tspan style="line-height:1.25" xml:space="preserve" font-size="3.9511px" x="185.6927" id="tspan3292" y="191.31752">Drawing number</tspan>
    </text>
    <text style="line-height:0%" x="248.32477" freecad:editable="FC-SH" id="text3294" y="191.45177">
     <tspan style="line-height:1.25" xml:space="preserve" font-size="3.9511px" x="248.32477" id="tspan3296" y="191.45177">Sheet</tspan>
    </text>
   </g>
  </g>
  <g fill-rule="evenodd" stroke="black" stroke-linecap="square" stroke-width="1" stroke-linejoin="bevel" id="DrawingContent" fill="none">
   <g font-style="normal" stroke="none" fill-opacity="1" font-size="29.1042" transform="matrix(1,0,0,1,1485,1050)" font-weight="400" fill="#ffffff" font-family="MS Shell Dlg 2">
    <path fill-rule="evenodd" vector-effect="non-scaling-stroke" d="M335.035,243.873 L335.05,18.0266 L-166.569,-271.366 C-192.483,-286.317 -217.338,-288.773 -235.672,-278.194 L-306.378,-237.397 C-334.36,-221.251 -342.744,-177.508 -327.619,-126.572 C-312.495,-75.6356 -276.841,-27.5415 -237.289,-4.72342 L264.329,284.67 L335.035,243.873"/>
   </g>
   <g font-style="normal" stroke="none" fill-opacity="1" font-size="29.1042" transform="matrix(1,0,0,1,1485,1050)" font-weight="400" fill="#ffffff" font-family="MS Shell Dlg 2">
    <path fill-rule="evenodd" vector-effect="non-scaling-stroke" d="M264.329,284.67 L264.345,58.8236 L-237.274,-230.569 C-263.189,-245.52 -288.044,-247.976 -306.378,-237.397 C-334.36,-221.251 -342.744,-177.508 -327.619,-126.572 C-312.495,-75.6356 -276.841,-27.5415 -237.289,-4.72342 L264.329,284.67"/>
   </g>
   <g font-style="normal" stroke="none" fill-opacity="1" font-size="29.1042" transform="matrix(1,0,0,1,1485,1050)" font-weight="400" fill="#ffffff" font-family="MS Shell Dlg 2">
    <path fill-rule="evenodd" vector-effect="non-scaling-stroke" d="M-134.327,-138.113 L235.793,75.4165 L235.783,235.136 L228.712,239.216 L-141.409,25.6861 L-141.398,-134.033 L-134.327,-138.113"/>
   </g>
   <g font-style="normal" stroke="none" fill-opacity="1" font-size="29.1042" transform="matrix(1,0,0,1,1485,1050)" font-weight="400" fill="#ffffff" font-family="MS Shell Dlg 2">
    <path fill-rule="evenodd" vector-effect="non-scaling-stroke" d="M228.723,79.4962 L228.712,239.216 L-141.409,25.6861 L-141.398,-134.033 L228.723,79.4962"/>
   </g>
   <g font-style="normal" stroke="none" fill-opacity="1" font-size="29.1042" transform="matrix(1,0,0,1,1485,1050)" font-weight="400" fill="#ffffff" font-family="MS Shell Dlg 2">
    <path fill-rule="evenodd" vector-effect="non-scaling-stroke" d="M335.05,18.0266 L264.345,58.8236 L-237.274,-230.569 L-166.569,-271.366 L335.05,18.0266"/>
   </g>
   <g font-style="normal" stroke="none" fill-opacity="1" font-size="29.1042" transform="matrix(1,0,0,1,1485,1050)" font-weight="400" fill="#ffffff" font-family="MS Shell Dlg 2">
    <path fill-rule="evenodd" vector-effect="non-scaling-stroke" d="M335.035,243.873 L335.05,18.0266 L264.345,58.8236 L264.329,284.67 L335.035,243.873"/>
   </g>
   <g font-style="normal" stroke="none" fill-opacity="1" font-size="29.1042" transform="matrix(1,0,0,1,1485,1050)" font-weight="400" fill="#ffffff" font-family="MS Shell Dlg 2">
    <path fill-rule="evenodd" vector-effect="non-scaling-stroke" d="M-206.795,-64.8103 C-198.696,-69.4834 -194.145,-79.538 -194.145,-92.7598 C-194.143,-112.908 -204.648,-137.133 -220.762,-154.144 C-236.876,-171.155 -255.427,-177.603 -267.768,-170.483 C-284.623,-160.757 -284.638,-129.218 -267.8,-100.037 C-250.963,-70.8566 -223.65,-55.085 -206.795,-64.8103 "/>
   </g>
   <g font-style="normal" stroke="none" fill-opacity="1" font-size="29.1042" transform="matrix(1,0,0,1,1485,1050)" font-weight="400" fill="#ffffff" font-family="MS Shell Dlg 2">
    <path fill-rule="evenodd" vector-effect="non-scaling-stroke" d="M-166.569,-271.366 C-192.483,-286.317 -217.338,-288.773 -235.672,-278.194 L-306.378,-237.397 C-288.044,-247.976 -263.189,-245.52 -237.274,-230.569 L-166.569,-271.366"/>
   </g>
   <g font-style="normal" stroke="none" fill-opacity="1" font-size="29.1042" transform="matrix(1,0,0,1,1485,1050)" font-weight="400" fill="#ffffff" font-family="MS Shell Dlg 2">
    <path fill-rule="evenodd" vector-effect="non-scaling-stroke" d="M-134.327,-138.113 L235.793,75.4165 L228.723,79.4962 L-141.398,-134.033 L-134.327,-138.113"/>
   </g>
   <g font-style="normal" stroke="none" fill-opacity="1" font-size="29.1042" transform="matrix(1,0,0,1,1485,1050)" font-weight="400" fill="#ffffff" font-family="MS Shell Dlg 2">
    <path fill-rule="evenodd" vector-effect="non-scaling-stroke" d="M235.793,75.4165 L235.783,235.136 L228.712,239.216 L228.723,79.4962 L235.793,75.4165"/>
   </g>
   <g font-style="normal" stroke="#000000" stroke-linecap="round" stroke-opacity="1" font-size="29.1042" transform="matrix(1,0,0,1,1485,1050)" font-weight="400" stroke-width="2.5" stroke-linejoin="bevel" fill="none" font-family="MS Shell Dlg 2">
    <path fill-rule="evenodd" vector-effect="none" d="M-166.569,-271.366 C-192.483,-286.317 -217.338,-288.773 -235.672,-278.194 "/>
   </g>
   <g font-style="normal" stroke="#000000" stroke-linecap="round" stroke-opacity="1" font-size="29.1042" transform="matrix(1,0,0,1,1485,1050)" font-weight="400" stroke-width="2.5" stroke-linejoin="bevel" fill="none" font-family="MS Shell Dlg 2">
    <path fill-rule="evenodd" vector-effect="none" d="M-237.274,-230.569 C-263.189,-245.52 -288.044,-247.976 -306.378,-237.397 "/>
   </g>
   <g font-style="normal" stroke="#000000" stroke-linecap="round" stroke-opacity="1" font-size="29.1042" transform="matrix(1,0,0,1,1485,1050)" font-weight="400" stroke-width="2.5" stroke-linejoin="bevel" fill="none" font-family="MS Shell Dlg 2">
    <path fill-rule="evenodd" vector-effect="none" d="M-306.378,-237.397 C-334.36,-221.251 -342.744,-177.508 -327.619,-126.572 C-312.495,-75.6356 -276.841,-27.5415 -237.289,-4.72342 "/>
   </g>
   <g font-style="normal" stroke="#000000" stroke-linecap="round" stroke-opacity="1" font-size="29.1042" transform="matrix(1,0,0,1,1485,1050)" font-weight="400" stroke-width="2.5" stroke-linejoin="bevel" fill="none" font-family="MS Shell Dlg 2">
    <path fill-rule="evenodd" vector-effect="none" d="M335.05,18.0266 L264.345,58.8236"/>
   </g>
   <g font-style="normal" stroke="#000000" stroke-linecap="round" stroke-opacity="1" font-size="29.1042" transform="matrix(1,0,0,1,1485,1050)" font-weight="400" stroke-width="2.5" stroke-linejoin="bevel" fill="none" font-family="MS Shell Dlg 2">
    <path fill-rule="evenodd" vector-effect="none" d="M335.05,18.0266 L-166.569,-271.366"/>
   </g>
   <g font-style="normal" stroke="#000000" stroke-linecap="round" stroke-opacity="1" font-size="29.1042" transform="matrix(1,0,0,1,1485,1050)" font-weight="400" stroke-width="2.5" stroke-linejoin="bevel" fill="none" font-family="MS Shell Dlg 2">
    <path fill-rule="evenodd" vector-effect="none" d="M264.345,58.8236 L-237.274,-230.569"/>
   </g>
   <g font-style="normal" stroke="#000000" stroke-linecap="round" stroke-opacity="1" font-size="29.1042" transform="matrix(1,0,0,1,1485,1050)" font-weight="400" stroke-width="2.5" stroke-linejoin="bevel" fill="none" font-family="MS Shell Dlg 2">
    <path fill-rule="evenodd" vector-effect="none" d="M335.035,243.873 L264.329,284.67"/>
   </g>
   <g font-style="normal" stroke="#000000" stroke-linecap="round" stroke-opacity="1" font-size="29.1042" transform="matrix(1,0,0,1,1485,1050)" font-weight="400" stroke-width="2.5" stroke-linejoin="bevel" fill="none" font-family="MS Shell Dlg 2">
    <path fill-rule="evenodd" vector-effect="none" d="M-237.289,-4.72342 L264.329,284.67"/>
   </g>
   <g font-style="normal" stroke="#000000" stroke-linecap="round" stroke-opacity="1" font-size="29.1042" transform="matrix(1,0,0,1,1485,1050)" font-weight="400" stroke-width="2.5" stroke-linejoin="bevel" fill="none" font-family="MS Shell Dlg 2">
    <path fill-rule="evenodd" vector-effect="none" d="M335.035,243.873 L335.05,18.0266"/>
   </g>
   <g font-style="normal" stroke="#000000" stroke-linecap="round" stroke-opacity="1" font-size="29.1042" transform="matrix(1,0,0,1,1485,1050)" font-weight="400" stroke-width="2.5" stroke-linejoin="bevel" fill="none" font-family="MS Shell Dlg 2">
    <path fill-rule="evenodd" vector-effect="none" d="M264.329,284.67 L264.345,58.8236"/>
   </g>
   <g font-style="normal" stroke="#000000" stroke-linecap="round" stroke-opacity="1" font-size="29.1042" transform="matrix(1,0,0,1,1485,1050)" font-weight="400" stroke-width="2.5" stroke-linejoin="bevel" fill="none" font-family="MS Shell Dlg 2">
    <path fill-rule="evenodd" vector-effect="none" d="M-194.145,-92.7598 C-194.143,-112.908 -204.648,-137.133 -220.762,-154.144 C-236.876,-171.155 -255.427,-177.603 -267.768,-170.483 "/>
   </g>
   <g font-style="normal" stroke="#000000" stroke-linecap="round" stroke-opacity="1" font-size="29.1042" transform="matrix(1,0,0,1,1485,1050)" font-weight="400" stroke-width="2.5" stroke-linejoin="bevel" fill="none" font-family="MS Shell Dlg 2">
    <path fill-rule="evenodd" vector-effect="none" d="M-267.768,-170.483 C-284.623,-160.757 -284.638,-129.218 -267.8,-100.037 C-250.963,-70.8566 -223.65,-55.085 -206.795,-64.8103 "/>
   </g>
   <g font-style="normal" stroke="#000000" stroke-linecap="round" stroke-opacity="1" font-size="29.1042" transform="matrix(1,0,0,1,1485,1050)" font-weight="400" stroke-width="2.5" stroke-linejoin="bevel" fill="none" font-family="MS Shell Dlg 2">
    <path fill-rule="evenodd" vector-effect="none" d="M-206.795,-64.8103 C-198.696,-69.4834 -194.145,-79.538 -194.145,-92.7598 "/>
   </g>
   <g font-style="normal" stroke="#000000" stroke-linecap="round" stroke-opacity="1" font-size="29.1042" transform="matrix(1,0,0,1,1485,1050)" font-weight="400" stroke-width="2.5" stroke-linejoin="bevel" fill="none" font-family="MS Shell Dlg 2">
    <path fill-rule="evenodd" vector-effect="none" d="M-134.327,-138.113 L235.793,75.4165"/>
   </g>
   <g font-style="normal" stroke="#000000" stroke-linecap="round" stroke-opacity="1" font-size="29.1042" transform="matrix(1,0,0,1,1485,1050)" font-weight="400" stroke-width="2.5" stroke-linejoin="bevel" fill="none" font-family="MS Shell Dlg 2">
    <path fill-rule="evenodd" vector-effect="none" d="M235.793,75.4165 L235.783,235.136"/>
   </g>
   <g font-style="normal" stroke="#000000" stroke-linecap="round" stroke-opacity="1" font-size="29.1042" transform="matrix(1,0,0,1,1485,1050)" font-weight="400" stroke-width="2.5" stroke-linejoin="bevel" fill="none" font-family="MS Shell Dlg 2">
    <path fill-rule="evenodd" vector-effect="none" d="M-134.327,-138.113 L-141.398,-134.033"/>
   </g>
   <g font-style="normal" stroke="#000000" stroke-linecap="round" stroke-opacity="1" font-size="29.1042" transform="matrix(1,0,0,1,1485,1050)" font-weight="400" stroke-width="2.5" stroke-linejoin="bevel" fill="none" font-family="MS Shell Dlg 2">
    <path fill-rule="evenodd" vector-effect="none" d="M235.793,75.4165 L228.723,79.4962"/>
   </g>
   <g font-style="normal" stroke="#000000" stroke-linecap="round" stroke-opacity="1" font-size="29.1042" transform="matrix(1,0,0,1,1485,1050)" font-weight="400" stroke-width="2.5" stroke-linejoin="bevel" fill="none" font-family="MS Shell Dlg 2">
    <path fill-rule="evenodd" vector-effect="none" d="M-141.398,-134.033 L228.723,79.4962"/>
   </g>
   <g font-style="normal" stroke="#000000" stroke-linecap="round" stroke-opacity="1" font-size="29.1042" transform="matrix(1,0,0,1,1485,1050)" font-weight="400" stroke-width="2.5" stroke-linejoin="bevel" fill="none" font-family="MS Shell Dlg 2">
    <path fill-rule="evenodd" vector-effect="none" d="M235.783,235.136 L228.712,239.216"/>
   </g>
   <g font-style="normal" stroke="#000000" stroke-linecap="round" stroke-opacity="1" font-size="29.1042" transform="matrix(1,0,0,1,1485,1050)" font-weight="400" stroke-width="2.5" stroke-linejoin="bevel" fill="none" font-family="MS Shell Dlg 2">
    <path fill-rule="evenodd" vector-effect="none" d="M228.723,79.4962 L228.712,239.216"/>
   </g>
   <g font-style="normal" stroke="#000000" stroke-linecap="round" stroke-opacity="1" font-size="29.1042" transform="matrix(1,0,0,1,1485,1050)" font-weight="400" stroke-width="2.5" stroke-linejoin="bevel" fill="none" font-family="MS Shell Dlg 2">
    <path fill-rule="evenodd" vector-effect="none" d="M228.712,239.216 L-141.409,25.6861"/>
   </g>
   <g font-style="normal" stroke="#000000" stroke-linecap="round" stroke-opacity="1" font-size="29.1042" transform="matrix(1,0,0,1,1485,1050)" font-weight="400" stroke-width="2.5" stroke-linejoin="bevel" fill="none" font-family="MS Shell Dlg 2">
    <path fill-rule="evenodd" vector-effect="none" d="M-141.409,25.6861 L-141.398,-134.033"/>
   </g>
   <g font-style="normal" stroke="#000000" stroke-linecap="round" stroke-opacity="1" font-size="29.1042" transform="matrix(1,0,0,1,1485,1050)" font-weight="400" stroke-width="2.5" stroke-linejoin="bevel" fill="none" font-family="MS Shell Dlg 2">
    <path fill-rule="evenodd" vector-effect="none" d="M-306.378,-237.397 L-235.672,-278.194"/>
   </g>
   <g font-style="normal" stroke="#000000" stroke-linecap="round" stroke-opacity="1" font-size="29.1042" transform="matrix(1,0,0,1,1485,1050)" font-weight="400" stroke-width="2.5" stroke-linejoin="bevel" fill="none" font-family="MS Shell Dlg 2">
    <path fill-rule="evenodd" vector-effect="none" d="M-166.569,-271.366 L-237.274,-230.569"/>
   </g>
  </g>
 </g>
</svg>
